APB_svetofor.vcd
$date
	Wed Nov 22 19:02:31 2023
$end
$version
	Icarus Verilog
$end
$timescale
	1s
$end
$scope module APB_svetofor_tb $end
$var wire 1 ! PWRITE $end
$var wire 32 " PWDATA [31:0] $end
$var wire 1 # PSEL $end
$var wire 1 $ PREADY $end
$var wire 32 % PRDATA_MASTER [31:0] $end
$var wire 32 & PRDATA [31:0] $end
$var wire 1 ' PENABLE $end
$var wire 32 ( PADDR [31:0] $end
$var reg 32 ) PADDR_MASTER [31:0] $end
$var reg 1 * PCLK $end
$var reg 1 + PRESET $end
$var reg 32 , PWDATA_MASTER [31:0] $end
$var reg 1 - PWRITE_MASTER $end
$scope module APB_master_1 $end
$var wire 32 . PADDR_MASTER [31:0] $end
$var wire 1 * PCLK $end
$var wire 1 + PRESET $end
$var wire 32 / PWDATA_MASTER [31:0] $end
$var wire 1 - PWRITE_MASTER $end
$var wire 1 $ PREADY $end
$var wire 32 0 PRDATA [31:0] $end
$var reg 32 1 PADDR [31:0] $end
$var reg 1 ' PENABLE $end
$var reg 32 2 PRDATA_MASTER [31:0] $end
$var reg 1 # PSEL $end
$var reg 32 3 PWDATA [31:0] $end
$var reg 1 ! PWRITE $end
$scope task apb_read $end
$var reg 32 4 inp_addr [31:0] $end
$upscope $end
$scope task apb_write $end
$var reg 32 5 inp_addr [31:0] $end
$var reg 32 6 inp_data [31:0] $end
$upscope $end
$upscope $end
$scope module svetofor_1 $end
$var wire 32 7 PADDR [31:0] $end
$var wire 1 * PCLK $end
$var wire 1 ' PENABLE $end
$var wire 1 # PSEL $end
$var wire 32 8 PWDATA [31:0] $end
$var wire 1 ! PWRITE $end
$var reg 1 9 CONTROL_REG $end
$var reg 32 : PRDATA [31:0] $end
$var reg 1 $ PREADY $end
$var reg 32 ; counter [31:0] $end
$var reg 4 < current_state [3:0] $end
$var reg 3 = state [2:0] $end
$var reg 4 > state_0 [3:0] $end
$var reg 4 ? state_1 [3:0] $end
$var reg 4 @ state_2 [3:0] $end
$var reg 4 A state_3 [3:0] $end
$scope function increment_counter $end
$upscope $end
$scope function update_state $end
$upscope $end
$upscope $end
$scope task read_data $end
$var reg 32 B ADDR [31:0] $end
$upscope $end
$scope task write_data $end
$var reg 32 C ADDR [31:0] $end
$var reg 32 D DATA [31:0] $end
$upscope $end
$upscope $end
$scope module APB_svetofor_tb $end
$scope module APB_master_1 $end
$scope task apb_read $end
$upscope $end
$scope task apb_write $end
$upscope $end
$upscope $end
$scope module svetofor_1 $end
$scope function increment_counter $end
$upscope $end
$scope function update_state $end
$upscope $end
$upscope $end
$scope task read_data $end
$upscope $end
$scope task write_data $end
$upscope $end
$upscope $end
$enddefinitions $end
#0
$dumpvars
bx D
bx C
bx B
b10 A
b1 @
b100 ?
b1000 >
b0 =
b0 <
b0 ;
b0 :
09
b0 8
b0 7
bx 6
bx 5
bx 4
b0 3
b0 2
b0 1
b0 0
b0 /
b0 .
0-
b0 ,
0+
0*
b0 )
b0 (
0'
b0 &
b0 %
0$
0#
b0 "
0!
$end
#200
1'
1#
b0 4
1+
b1 ;
b1000 <
1*
#400
0*
#600
1$
b10 ;
1*
#800
0*
#1000
0$
0'
0#
b11 ;
1*
#1200
0*
#1400
1'
1#
b100 ;
1*
#1600
0*
#1800
1$
b101 ;
1*
#2000
0*
#2200
0$
0'
0#
b110 ;
1*
#2400
0*
#2600
1'
1#
b1 ,
b1 /
1-
b0 C
b1 D
b111 ;
1*
#2800
0*
#3000
1!
b1 "
b1 3
b1 8
1$
b100 )
b100 .
0-
b100 B
b1 6
b0 5
b1000 ;
1*
#3200
0*
#3400
b1 =
0$
19
0'
0#
b100 4
b1 ;
1*
#3600
09
0*
#3800
1'
1#
0!
b100 (
b100 1
b100 7
b10 ;
b100 <
1*
#4000
0*
#4200
b100 %
b100 2
1$
b100 &
b100 0
b100 :
b11 ;
1*
#4400
0*
#4600
0$
0'
0#
b100 ;
1*
#4800
0*
#5000
1'
1#
b101 ;
1*
#5200
0*
#5400
1$
b1 ;
b10 =
1*
#5600
0*
#5800
0$
b1 &
b1 0
b1 :
0'
0#
b10 ;
b1 <
1*
#6000
0*
#6200
1'
1#
b11 ;
1*
#6400
0*
#6600
b1 %
b1 2
1$
b100 ;
1*
#6800
0*
#7000
0$
0'
0#
b101 ;
1*
#7200
0*
#7400
1'
1#
b1 ;
b11 =
1*
#7600
0*
#7800
b10 %
b10 2
1$
b10 &
b10 0
b10 :
b10 ;
b10 <
1*
#8000
0*
#8200
0$
0'
0#
b11 ;
1*
#8400
0*
#8600
1'
1#
b100 ;
1*
#8800
0*
#9000
1$
b101 ;
1*
#9200
0*
#9400
0$
0'
0#
b110 ;
1*
#9600
0*
#9800
1'
1#
b111 ;
1*
#10000
0*
#10200
1$
b1000 ;
1*
#10400
0*
#10600
0$
0'
0#
b1001 ;
1*
#10800
0*
#11000
1'
1#
b0 )
b0 .
1-
b1010 ;
1*
#11200
0*
#11400
1!
b0 (
b0 1
b0 7
1$
b100 )
b100 .
0-
b1011 ;
1*
#11600
0*
#11800
b100 =
0$
19
0'
0#
b1 ;
1*
#12000
09
0*
#12200
1'
1#
0!
b100 (
b100 1
b100 7
b10 ;
b1 <
1*
#12400
0*
#12600
b1 %
b1 2
1$
b1 &
b1 0
b1 :
b11 ;
1*
#12800
0*
#13000
0$
0'
0#
b100 ;
1*
#13200
0*
#13400
1'
1#
b101 ;
1*
#13600
0*
#13800
1$
b1 ;
b101 =
1*
#14000
0*
#14200
0$
b100 &
b100 0
b100 :
0'
0#
b10 ;
b100 <
1*
#14400
0*
#14600
1'
1#
b11 ;
1*
#14800
0*
#15000
b100 %
b100 2
1$
b100 ;
1*
#15200
0*
#15400
0$
0'
0#
b101 ;
1*
#15600
0*
#15800
1'
1#
b1 ;
b0 =
1*
#16000
0*
#16200
b1000 %
b1000 2
1$
b1000 &
b1000 0
b1000 :
b10 ;
b1000 <
1*
#16400
0*
#16600
0$
0'
0#
b11 ;
1*
#16800
0*
#17000
1'
1#
b100 ;
1*
#17200
0*
#17400
1$
b101 ;
1*
#17600
0*
#17800
0$
0'
0#
b110 ;
1*
#18000
0*
#18200
1'
1#
b111 ;
1*
#18400
0*
#18600
1$
b1000 ;
1*
#18800
0*
#19000
0$
0'
0#
b1001 ;
1*
#19200
0*
#19400
1'
1#
b1010 ;
1*
#19600
0*
#19800
1$
b1011 ;
1*
#20000
0*
#20200
0$
0'
0#
b1100 ;
1*
#20400
0*
#20600
1'
1#
b1101 ;
1*
#20800
0*
#21000
1$
b1110 ;
1*
#21200
0*
#21400
0$
0'
0#
b1111 ;
1*
#21600
0*
#21800
1'
1#
b1 ;
b1 =
1*
#22000
0*
#22200
b100 %
b100 2
1$
b100 &
b100 0
b100 :
b10 ;
b100 <
1*
#22400
0*
#22600
0$
0'
0#
b11 ;
1*
#22800
0*
#23000
1'
1#
b100 ;
1*
#23200
0*
#23400
1$
b101 ;
1*
#23600
0*
#23800
0$
0'
0#
b1 ;
b10 =
1*
#24000
0*
#24200
1'
1#
b10 ;
b1 <
1*
#24400
0*
#24600
b1 %
b1 2
1$
b1 &
b1 0
b1 :
b11 ;
1*
#24800
0*
#25000
0$
0'
0#
b100 ;
1*
#25200
0*
#25400
1'
1#
b101 ;
1*
#25600
0*
#25800
1$
b1 ;
b11 =
1*
#26000
0*
#26200
0$
b10 &
b10 0
b10 :
0'
0#
b10 ;
b10 <
1*
#26400
0*
#26600
1'
1#
b11 ;
1*
#26800
0*
#27000
b10 %
b10 2
1$
b100 ;
1*
#27200
0*
#27400
0$
0'
0#
b101 ;
1*
#27600
0*
#27800
1'
1#
b110 ;
1*
#28000
0*
#28200
1$
b111 ;
1*
#28400
0*
#28600
0$
0'
0#
b1000 ;
1*
#28800
0*
#29000
1'
1#
b1001 ;
1*
#29200
0*
#29400
1$
b1010 ;
1*
#29600
0*
#29800
0$
0'
0#
b1011 ;
1*
#30000
0*
#30200
1'
1#
b1100 ;
1*
#30400
0*
#30600
1$
b1101 ;
1*
#30800
0*
#31000
0$
0'
0#
b1110 ;
1*
#31200
0*
#31400
1'
1#
b1111 ;
1*
#31600
0*
#31800
1$
b1 ;
b100 =
1*
#32000
0*
#32200
0$
b1 &
b1 0
b1 :
0'
0#
b10 ;
b1 <
1*
#32400
0*
#32600
1'
1#
b11 ;
1*
#32800
0*
#33000
b1 %
b1 2
1$
b100 ;
1*
#33200
0*
#33400
0$
0'
0#
b101 ;
1*
#33600
0*
#33800
1'
1#
b1 ;
b101 =
1*
#34000
0*
#34200
b100 %
b100 2
1$
b100 &
b100 0
b100 :
b10 ;
b100 <
1*
#34400
0*
#34600
0$
0'
0#
b11 ;
1*
#34800
0*
#35000
1'
1#
b100 ;
1*
#35200
0*
#35400
1$
b101 ;
1*
#35600
0*
#35800
0$
0'
0#
b1 ;
b0 =
1*
#36000
0*
#36200
1'
1#
b10 ;
b1000 <
1*
#36400
0*
#36600
b1000 %
b1000 2
1$
b1000 &
b1000 0
b1000 :
b11 ;
1*
#36800
0*
#37000
0$
0'
0#
b100 ;
1*
#37200
0*
#37400
1'
1#
b101 ;
1*
#37600
0*
#37800
1$
b110 ;
1*
#38000
0*
#38200
0$
0'
0#
b111 ;
1*
#38400
0*
#38600
1'
1#
b1000 ;
1*
#38800
0*
#39000
1$
b1001 ;
1*
#39200
0*
#39400
0$
0'
0#
b1010 ;
1*
#39600
0*
#39800
1'
1#
b1011 ;
1*
#40000
0*
#40200
1$
b1100 ;
1*
#40400
0*
#40600
0$
0'
0#
b1101 ;
1*
#40800
0*
#41000
1'
1#
b1110 ;
1*
#41200
0*
#41400
1$
b1111 ;
1*
#41600
0*
#41800
0$
0'
0#
b1 ;
b1 =
1*
#42000
0*
#42200
1'
1#
b10 ;
b100 <
1*
#42400
0*
#42600
b100 %
b100 2
1$
b100 &
b100 0
b100 :
b11 ;
1*
#42800
0*
#43000
0$
0'
0#
b100 ;
1*
#43200
0*
#43400
1'
1#
b101 ;
1*
#43600
0*
#43800
1$
b1 ;
b10 =
1*
#44000
0*
#44200
0$
b1 &
b1 0
b1 :
0'
0#
b10 ;
b1 <
1*
#44400
0*
#44600
1'
1#
b11 ;
1*
#44800
0*
#45000
b1 %
b1 2
1$
b100 ;
1*
#45200
0*
#45400
0$
0'
0#
b101 ;
1*
#45600
0*
#45800
1'
1#
b1 ;
b11 =
1*
#46000
0*
#46200
b10 %
b10 2
1$
b10 &
b10 0
b10 :
b10 ;
b10 <
1*
#46400
0*
#46600
0$
0'
0#
b11 ;
1*
#46800
0*
#47000
1'
1#
b100 ;
1*
#47200
0*
#47400
1$
b101 ;
1*
#47600
0*
#47800
0$
0'
0#
b110 ;
1*
#48000
0*
#48200
1'
1#
b111 ;
1*
#48400
0*
#48600
1$
b1000 ;
1*
#48800
0*
#49000
0$
0'
0#
b1001 ;
1*
#49200
0*
#49400
1'
1#
b1010 ;
1*
#49600
0*
#49800
1$
b1011 ;
1*
#50000
0*
#50200
0$
0'
0#
b1100 ;
1*
#50400
0*
#50600
1'
1#
b1101 ;
1*
#50800
0*
#51000
1$
b1110 ;
1*
#51200
0*
#51400
0$
0'
0#
b1111 ;
1*
#51600
0*
#51800
1'
1#
b1 ;
b100 =
1*
#52000
0*
#52200
b1 %
b1 2
1$
b1 &
b1 0
b1 :
b10 ;
b1 <
1*
#52400
0*
#52600
0$
0'
0#
b11 ;
1*
#52800
0*
#53000
1'
1#
b100 ;
1*
#53200
0*
#53400
1$
b101 ;
1*
#53600
0*
#53800
0$
0'
0#
b1 ;
b101 =
1*
#54000
0*
#54200
1'
1#
b10 ;
b100 <
1*
#54400
0*
#54600
b100 %
b100 2
1$
b100 &
b100 0
b100 :
b11 ;
1*
#54800
0*
#55000
0$
0'
0#
b100 ;
1*
#55200
0*
#55400
1'
1#
b101 ;
1*
#55600
0*
#55800
1$
b1 ;
b0 =
1*
#56000
0*
#56200
0$
b1000 &
b1000 0
b1000 :
0'
0#
b10 ;
b1000 <
1*
#56400
0*
#56600
1'
1#
b11 ;
1*
#56800
0*
#57000
b1000 %
b1000 2
1$
b100 ;
1*
#57200
0*
#57400
0$
0'
0#
b101 ;
1*
#57600
0*
#57800
1'
1#
b110 ;
1*
#58000
0*
#58200
1$
b111 ;
1*
#58400
0*
#58600
0$
0'
0#
b1000 ;
1*
#58800
0*
#59000
1'
1#
b1001 ;
1*
#59200
0*
#59400
1$
b1010 ;
1*
#59600
0*
#59800
0$
0'
0#
b1011 ;
1*
#60000
0*
#60200
1'
1#
b1100 ;
1*
#60400
0*
#60600
1$
b1101 ;
1*
#60800
0*
#61000
0$
0'
0#
b1110 ;
1*
#61200
0*
#61400
1'
1#
b1111 ;
1*
